…
# internal data needs to be read
landscape <- terra::rast(landscapemetrics::landscape)

# landscape raster
plot(landscape)
```

<img src="man/figures/README-unnamed-chunk-2-1.png" width="75%" style="display: block; margin: auto;" />

``` r

# calculate for example the Euclidean nearest-neighbor distance on patch level
lsm_p_enn(landscape)
#> # A tibble: 28 × 6
#>    layer level class    id metric value
#>    <int> <chr> <int> <int> <chr>  <dbl>
#>  1     1 patch     1     1 enn     7   
#>  2     1 patch     1     2 enn     4   
#>  3     1 patch     1     3 enn     2   
#>  4     1 patch     1     4 enn     6.32
#>  5     1 patch     1     5 enn     5   
#>  6     1 patch     1     6 enn     2.24
#>  7     1 patch     1     7 enn     2   
#>  8     1 patch     1     8 enn     4.12
#>  9     1 patch     1     9 enn     4.12
#> 10     1 patch     2    10 enn     4.47
#> # ℹ 18 more rows
…
There is also a wrapper around every metric in the package to quickly
calculate a bunch of metrics:

``` r
# calculate all metrics on patch level
calculate_lsm(landscape, level = "patch")
#> Warning: Please use 'check_landscape()' to ensure the input data is valid.
#> # A tibble: 336 × 6
#>    layer level class    id metric  value
#>    <int> <chr> <int> <int> <chr>   <dbl>
#>  1     1 patch     1     1 area   0.0001
#>  2     1 patch     1     2 area   0.0005
#>  3     1 patch     1     3 area   0.0072
#>  4     1 patch     1     4 area   0.0001
#>  5     1 patch     1     5 area   0.0001
#>  6     1 patch     1     6 area   0.008 
#>  7     1 patch     1     7 area   0.0016
#>  8     1 patch     1     8 area   0.0003
#>  9     1 patch     1     9 area   0.0005
#> 10     1 patch     2    10 area   0.0034
#> # ℹ 326 more rows
```
…
